riscv/out/riscv.vcd
$date
	Sun Dec  3 22:07:25 2023
$end
$version
	Icarus Verilog
$end
$timescale
	1s
$end
$scope module riscv_tb $end
$var parameter 32 ! CLOCK_PERIOD $end
$var parameter 64 " INSTR_DURATION $end
$var parameter 32 # NUM_STAGES $end
$var reg 1 $ clk $end
$var reg 1 % rst $end
$scope module uut $end
$var wire 1 & brun $end
$var wire 1 $ clk $end
$var wire 1 % rst $end
$var wire 1 ' takebranch $end
$var wire 1 ( wreg $end
$var wire 32 ) wrdata [31:0] $end
$var wire 1 * wmem $end
$var wire 2 + wbsel [1:0] $end
$var wire 32 , rmemdata [31:0] $end
$var wire 1 - rmem $end
$var wire 5 . regd [4:0] $end
$var wire 5 / reg2 [4:0] $end
$var wire 5 0 reg1 [4:0] $end
$var wire 32 1 rdata2_out [31:0] $end
$var wire 32 2 rdata2 [31:0] $end
$var wire 32 3 rdata1_out [31:0] $end
$var wire 32 4 rdata1 [31:0] $end
$var wire 1 5 pcsel $end
$var wire 32 6 pc_out_4 [31:0] $end
$var wire 32 7 pc_out [31:0] $end
$var wire 2 8 memsz [1:0] $end
$var wire 1 9 inst_undef $end
$var wire 3 : inst_format [2:0] $end
$var wire 32 ; idata [31:0] $end
$var wire 1 < bsel $end
$var wire 3 = branch_instr [2:0] $end
$var wire 1 > asel $end
$var wire 4 ? aluop [3:0] $end
$var wire 32 @ alu_result [31:0] $end
$var wire 32 A Imm [31:0] $end
$var wire 1 B BrLt $end
$var wire 1 C BrEq $end
$scope module ImmGen $end
$var wire 3 D InstFormat [2:0] $end
$var wire 32 E Inst [31:0] $end
$var parameter 32 F AluOp_ADD $end
$var parameter 32 G AluOp_AND $end
$var parameter 32 H AluOp_DIV $end
$var parameter 32 I AluOp_MUL $end
$var parameter 32 J AluOp_OR $end
$var parameter 32 K AluOp_SLL $end
$var parameter 32 L AluOp_SLTI $end
$var parameter 32 M AluOp_SRA $end
$var parameter 32 N AluOp_SRL $end
$var parameter 32 O AluOp_SUB $end
$var parameter 32 P AluOp_XOR $end
$var parameter 32 Q BR_BEQ $end
$var parameter 32 R BR_BGE $end
$var parameter 32 S BR_BGEU $end
$var parameter 32 T BR_BLT $end
$var parameter 32 U BR_BLTU $end
$var parameter 32 V BR_BNE $end
$var parameter 32 W BR_JAL $end
$var parameter 32 X BR_JALR $end
$var parameter 3 Y InstFormat_I $end
$var parameter 3 Z InstFormat_R $end
$var parameter 3 [ InstFormat_S $end
$var parameter 3 \ InstFormat_SB $end
$var parameter 3 ] InstFormat_U $end
$var parameter 3 ^ InstFormat_UJ $end
$var parameter 32 _ Wb_Imm $end
$var parameter 32 ` Wb_Mem $end
$var parameter 32 a Wb_Pc4 $end
$var parameter 32 b Wb_Reg $end
$var reg 32 c Imm [31:0] $end
$upscope $end
$scope module alu $end
$var wire 32 d alu_a [31:0] $end
$var wire 32 e alu_b [31:0] $end
$var wire 4 f aluop [3:0] $end
$var parameter 32 g AluOp_ADD $end
$var parameter 32 h AluOp_AND $end
$var parameter 32 i AluOp_DIV $end
$var parameter 32 j AluOp_MUL $end
$var parameter 32 k AluOp_OR $end
$var parameter 32 l AluOp_SLL $end
$var parameter 32 m AluOp_SLTI $end
$var parameter 32 n AluOp_SRA $end
$var parameter 32 o AluOp_SRL $end
$var parameter 32 p AluOp_SUB $end
$var parameter 32 q AluOp_XOR $end
$var parameter 32 r BR_BEQ $end
$var parameter 32 s BR_BGE $end
$var parameter 32 t BR_BGEU $end
$var parameter 32 u BR_BLT $end
$var parameter 32 v BR_BLTU $end
$var parameter 32 w BR_BNE $end
$var parameter 32 x BR_JAL $end
$var parameter 32 y BR_JALR $end
$var parameter 3 z InstFormat_I $end
$var parameter 3 { InstFormat_R $end
$var parameter 3 | InstFormat_S $end
$var parameter 3 } InstFormat_SB $end
$var parameter 3 ~ InstFormat_U $end
$var parameter 3 !" InstFormat_UJ $end
$var parameter 32 "" Wb_Imm $end
$var parameter 32 #" Wb_Mem $end
$var parameter 32 $" Wb_Pc4 $end
$var parameter 32 %" Wb_Reg $end
$var reg 32 &" alu_result [31:0] $end
$upscope $end
$scope module branchcmp $end
$var wire 1 & BrUn $end
$var wire 32 '" rs2 [31:0] $end
$var wire 32 (" rs1 [31:0] $end
$var reg 1 C BrEq $end
$var reg 1 B BrLt $end
$upscope $end
$scope module ctl $end
$var wire 1 $ clk $end
$var wire 1 % rst $end
$var wire 5 )" regd [4:0] $end
$var wire 5 *" reg2 [4:0] $end
$var wire 5 +" reg1 [4:0] $end
$var wire 32 ," idata [31:0] $end
$var wire 7 -" OpCode [6:0] $end
$var wire 7 ." Funct7 [6:0] $end
$var wire 3 /" Funct3 [2:0] $end
$var parameter 32 0" AluOp_ADD $end
$var parameter 32 1" AluOp_AND $end
$var parameter 32 2" AluOp_DIV $end
$var parameter 32 3" AluOp_MUL $end
$var parameter 32 4" AluOp_OR $end
$var parameter 32 5" AluOp_SLL $end
$var parameter 32 6" AluOp_SLTI $end
$var parameter 32 7" AluOp_SRA $end
$var parameter 32 8" AluOp_SRL $end
$var parameter 32 9" AluOp_SUB $end
$var parameter 32 :" AluOp_XOR $end
$var parameter 32 ;" BR_BEQ $end
$var parameter 32 <" BR_BGE $end
$var parameter 32 =" BR_BGEU $end
$var parameter 32 >" BR_BLT $end
$var parameter 32 ?" BR_BLTU $end
$var parameter 32 @" BR_BNE $end
$var parameter 32 A" BR_JAL $end
$var parameter 32 B" BR_JALR $end
$var parameter 3 C" InstFormat_I $end
$var parameter 3 D" InstFormat_R $end
$var parameter 3 E" InstFormat_S $end
$var parameter 3 F" InstFormat_SB $end
$var parameter 3 G" InstFormat_U $end
$var parameter 3 H" InstFormat_UJ $end
$var parameter 32 I" Wb_Imm $end
$var parameter 32 J" Wb_Mem $end
$var parameter 32 K" Wb_Pc4 $end
$var parameter 32 L" Wb_Reg $end
$var reg 4 M" aluop [3:0] $end
$var reg 1 > asel $end
$var reg 3 N" branch_instr [2:0] $end
$var reg 1 < bsel $end
$var reg 3 O" inst_format [2:0] $end
$var reg 1 9 inst_undef $end
$var reg 2 P" memsz [1:0] $end
$var reg 1 5 pcsel $end
$var reg 1 - rmem $end
$var reg 2 Q" wbsel [1:0] $end
$var reg 1 * wmem $end
$var reg 1 ( wreg $end
$upscope $end
$scope module dmem $end
$var wire 32 R" alu_result [31:0] $end
$var wire 1 $ clk $end
$var wire 2 S" memsz [1:0] $end
$var wire 1 T" rmem $end
$var wire 1 % rst $end
$var wire 1 * wmem $end
$var wire 32 U" wdata [31:0] $end
$var wire 32 V" rdata [31:0] $end
$scope module dram $end
$var wire 32 W" addr [31:0] $end
$var wire 1 $ clk $end
$var wire 2 X" memsz [1:0] $end
$var wire 32 Y" rdata [31:0] $end
$var wire 1 T" rmem $end
$var wire 1 % rst $end
$var wire 1 * wmem $end
$var wire 32 Z" wdata [31:0] $end
$scope begin $ivl_for_loop1 $end
$var integer 32 [" i [31:0] $end
$upscope $end
$upscope $end
$upscope $end
$scope module pc $end
$var wire 32 \" alu_result [31:0] $end
$var wire 1 $ clk $end
$var wire 32 ]" pc_out [31:0] $end
$var wire 1 5 pcsel $end
$var wire 1 % rst $end
$var wire 1 ' takebranch $end
$var wire 32 ^" pc_out_4 [31:0] $end
$var wire 32 _" iout [31:0] $end
$var reg 32 `" next_pc [31:0] $end
$var reg 32 a" pc [31:0] $end
$var reg 32 b" pc_plus_4 [31:0] $end
$scope module imem $end
$var wire 32 c" addr [31:0] $end
$var wire 32 d" data [31:0] $end
$upscope $end
$upscope $end
$scope module regfile $end
$var wire 1 $ clk $end
$var wire 5 e" raddr1 [4:0] $end
$var wire 5 f" raddr2 [4:0] $end
$var wire 5 g" waddr [4:0] $end
$var wire 32 h" wrdata [31:0] $end
$var wire 1 ( wreg $end
$var wire 32 i" rdata2 [31:0] $end
$var wire 32 j" rdata1 [31:0] $end
$scope begin $ivl_for_loop0 $end
$var integer 32 k" i [31:0] $end
$upscope $end
$upscope $end
$upscope $end
$upscope $end
$enddefinitions $end
$comment Show the parameter values. $end
$dumpall
b0 L"
b11 K"
b1 J"
b10 I"
b101 H"
b100 G"
b11 F"
b10 E"
b0 D"
b1 C"
b111 B"
b110 A"
b1 @"
b100 ?"
b10 >"
b101 ="
b11 <"
b0 ;"
b100 :"
b1 9"
b110 8"
b111 7"
b1010 6"
b101 5"
b11 4"
b1000 3"
b1001 2"
b10 1"
b0 0"
b0 %"
b11 $"
b1 #"
b10 ""
b101 !"
b100 ~
b11 }
b10 |
b0 {
b1 z
b111 y
b110 x
b1 w
b100 v
b10 u
b101 t
b11 s
b0 r
b100 q
b1 p
b110 o
b111 n
b1010 m
b101 l
b11 k
b1000 j
b1001 i
b10 h
b0 g
b0 b
b11 a
b1 `
b10 _
b101 ^
b100 ]
b11 \
b10 [
b0 Z
b1 Y
b111 X
b110 W
b1 V
b100 U
b10 T
b101 S
b11 R
b0 Q
b100 P
b1 O
b110 N
b111 M
b1010 L
b101 K
b11 J
b1000 I
b1001 H
b10 G
b0 F
b1 #
b10100 "
b10100 !
$end
#0
$dumpvars
b100000 k"
b0 j"
b0 i"
b0 h"
b0 g"
b0 f"
b0 e"
b0 d"
b0 c"
b100 b"
b0 a"
b100 `"
b0 _"
b100 ^"
b0 ]"
b0 \"
b10000000000 ["
b0 Z"
b0 Y"
b0 X"
b0 W"
b0 V"
b0 U"
zT"
b0 S"
b0 R"
b0 Q"
b0 P"
b0 O"
b0 N"
b0 M"
b0 /"
b0 ."
b0 -"
b0 ,"
b0 +"
b0 *"
b0 )"
b0 ("
b0 '"
b0 &"
b0 f
b0 e
b0 d
b0 c
b0 E
b0 D
1C
0B
b0 A
b0 @
b0 ?
0>
b0 =
0<
b0 ;
b0 :
09
b0 8
b0 7
b100 6
05
b0 4
b0 3
b0 2
b0 1
b0 0
b0 /
b0 .
0-
b0 ,
b0 +
0*
b0 )
0(
1'
0&
1%
0$
$end
#10
b10000000000 ["
1$
#20
19
0$
0%
#30
0'
b11111111111111111111111111110100 )
b11111111111111111111111111110100 h"
b11 1
b11 e
bx ,
bx V"
bx Y"
b11111111111111111111111111110100 @
b11111111111111111111111111110100 &"
b11111111111111111111111111110100 R"
b11111111111111111111111111110100 W"
b11111111111111111111111111110100 \"
b11111111111111111111111111110001 3
b11111111111111111111111111110001 d
1B
0C
b11 2
b11 '"
b11 U"
b11 Z"
b11 i"
b11111111111111111111111111110001 4
b11111111111111111111111111110001 ("
b11111111111111111111111111110001 j"
1(
09
b10 /
b10 *"
b10 f"
b1 0
b1 +"
b1 e"
b11 .
b11 )"
b11 g"
b110011 -"
b1000001000000110110011 ;
b1000001000000110110011 E
b1000001000000110110011 ,"
b1000001000000110110011 _"
b1000001000000110110011 d"
b1000 `"
b1000 6
b1000 ^"
b1000 b"
b100 7
b100 ]"
b100 a"
b100 c"
1$
#40
0$
#50
b11111111111111111111111111101110 )
b11111111111111111111111111101110 h"
b11111111111111111111111111101110 @
b11111111111111111111111111101110 &"
b11111111111111111111111111101110 R"
b11111111111111111111111111101110 W"
b11111111111111111111111111101110 \"
b1 ?
b1 f
b1 M"
1(
b100000 ."
b1000000001000001000000110110011 ;
b1000000001000001000000110110011 E
b1000000001000001000000110110011 ,"
b1000000001000001000000110110011 _"
b1000000001000001000000110110011 d"
b1100 `"
b1100 6
b1100 ^"
b1100 b"
b1000 7
b1000 ]"
b1000 a"
b1000 c"
1$
#60
0$
#70
b1 )
b1 h"
b0 ,
b0 V"
b0 Y"
b1 @
b1 &"
b1 R"
b1 W"
b1 \"
1(
b10 ?
b10 f
b10 M"
b0 ."
b111 /"
b1000001111000110110011 ;
b1000001111000110110011 E
b1000001111000110110011 ,"
b1000001111000110110011 _"
b1000001111000110110011 d"
b10000 `"
b10000 6
b10000 ^"
b10000 b"
b1100 7
b1100 ]"
b1100 a"
b1100 c"
1$
#80
0$
#90
b11111111111111111111111111110011 )
b11111111111111111111111111110011 h"
bx ,
bx V"
bx Y"
b11111111111111111111111111110011 @
b11111111111111111111111111110011 &"
b11111111111111111111111111110011 R"
b11111111111111111111111111110011 W"
b11111111111111111111111111110011 \"
1(
b11 ?
b11 f
b11 M"
b110 /"
b1000001110000110110011 ;
b1000001110000110110011 E
b1000001110000110110011 ,"
b1000001110000110110011 _"
b1000001110000110110011 d"
b10100 `"
b10100 6
b10100 ^"
b10100 b"
b10000 7
b10000 ]"
b10000 a"
b10000 c"
1$
#100
0$
#110
b11111111111111111111111111110010 )
b11111111111111111111111111110010 h"
b11111111111111111111111111110010 @
b11111111111111111111111111110010 &"
b11111111111111111111111111110010 R"
b11111111111111111111111111110010 W"
b11111111111111111111111111110010 \"
1(
b100 ?
b100 f
b100 M"
b100 /"
b1000001100000110110011 ;
b1000001100000110110011 E
b1000001100000110110011 ,"
b1000001100000110110011 _"
b1000001100000110110011 d"
b11000 `"
b11000 6
b11000 ^"
b11000 b"
b10100 7
b10100 ]"
b10100 a"
b10100 c"
1$
#120
0$
#130
b11111111111111111111111110001000 )
b11111111111111111111111110001000 h"
b11111111111111111111111110001000 @
b11111111111111111111111110001000 &"
b11111111111111111111111110001000 R"
b11111111111111111111111110001000 W"
b11111111111111111111111110001000 \"
1(
b101 ?
b101 f
b101 M"
b1 /"
b1000001001000110110011 ;
b1000001001000110110011 E
b1000001001000110110011 ,"
b1000001001000110110011 _"
b1000001001000110110011 d"
b11100 `"
b11100 6
b11100 ^"
b11100 b"
b11000 7
b11000 ]"
b11000 a"
b11000 c"
1$
#140
0$
#150
b11111111111111111111111111110 )
b11111111111111111111111111110 h"
b11111111111111111111111111110 @
b11111111111111111111111111110 &"
b11111111111111111111111111110 R"
b11111111111111111111111111110 W"
b11111111111111111111111111110 \"
1(
b110 ?
b110 f
b110 M"
b101 /"
b1000001101000110110011 ;
b1000001101000110110011 E
b1000001101000110110011 ,"
b1000001101000110110011 _"
b1000001101000110110011 d"
b100000 `"
b100000 6
b100000 ^"
b100000 b"
b11100 7
b11100 ]"
b11100 a"
b11100 c"
1$
#160
0$
#170
b11111111111111111111111111110100 )
b11111111111111111111111111110100 h"
b11111111111111111111111111110100 @
b11111111111111111111111111110100 &"
b11111111111111111111111111110100 R"
b11111111111111111111111111110100 W"
b11111111111111111111111111110100 \"
19
1(
b0 ?
b0 f
b0 M"
b100000 ."
b1000000001000001101000110110011 ;
b1000000001000001101000110110011 E
b1000000001000001101000110110011 ,"
b1000000001000001101000110110011 _"
b1000000001000001101000110110011 d"
b100100 `"
b100100 6
b100100 ^"
b100100 b"
b100000 7
b100000 ]"
b100000 a"
b100000 c"
1$
#180
0$
#190
b11111111111111111111111111010011 )
b11111111111111111111111111010011 h"
b11111111111111111111111111010011 @
b11111111111111111111111111010011 &"
b11111111111111111111111111010011 R"
b11111111111111111111111111010011 W"
b11111111111111111111111111010011 \"
b1000 ?
b1000 f
b1000 M"
1(
09
b1 ."
b0 /"
b10001000001000000110110011 ;
b10001000001000000110110011 E
b10001000001000000110110011 ,"
b10001000001000000110110011 _"
b10001000001000000110110011 d"
b101000 `"
b101000 6
b101000 ^"
b101000 b"
b100100 7
b100100 ]"
b100100 a"
b100100 c"
1$
#200
0$
#210
b1010101010101010101010101010000 )
b1010101010101010101010101010000 h"
b1010101010101010101010101010000 @
b1010101010101010101010101010000 &"
b1010101010101010101010101010000 R"
b1010101010101010101010101010000 W"
b1010101010101010101010101010000 \"
1(
b1001 ?
b1001 f
b1001 M"
b100 /"
b10001000001100000110110011 ;
b10001000001100000110110011 E
b10001000001100000110110011 ,"
b10001000001100000110110011 _"
b10001000001100000110110011 d"
b101100 `"
b101100 6
b101100 ^"
b101100 b"
b101000 7
b101000 ]"
b101000 a"
b101000 c"
1$
#220
1'
b0 1
b0 e
b0 ,
b0 V"
b0 Y"
b0 3
b0 d
0B
1C
b0 2
b0 '"
b0 U"
b0 Z"
b0 i"
b0 4
b0 ("
b0 j"
b0 ."
b0 /
b0 *"
b0 f"
b0 0
b0 +"
b0 e"
b0 /"
b0 .
b0 )"
b0 g"
b0 -"
b0 ;
b0 E
b0 ,"
b0 _"
b0 d"
b100 `"
b100 6
b100 ^"
b100 b"
b0 7
b0 ]"
b0 a"
b0 c"
b0 )
b0 h"
b0 @
b0 &"
b0 R"
b0 W"
b0 \"
0(
b0 ?
b0 f
b0 M"
b10000000000 ["
0$
1%
#230
b10000000000 ["
1$
#240
19
0$
0%
#250
0'
b11111111111111111111111111110111 )
b11111111111111111111111111110111 h"
bx ,
bx V"
bx Y"
b110 1
b110 e
b11111111111111111111111111110111 @
b11111111111111111111111111110111 &"
b11111111111111111111111111110111 R"
b11111111111111111111111111110111 W"
b11111111111111111111111111110111 \"
b11111111111111111111111111110001 3
b11111111111111111111111111110001 d
0C
b11 A
b11 c
b11111111111111111111111111010011 2
b11111111111111111111111111010011 '"
b11111111111111111111111111010011 U"
b11111111111111111111111111010011 Z"
b11111111111111111111111111010011 i"
b11111111111111111111111111110001 4
b11111111111111111111111111110001 ("
b11111111111111111111111111110001 j"
1<
1(
b1 :
b1 D
b1 O"
09
b11 /
b11 *"
b11 f"
b1 0
b1 +"
b1 e"
b11 .
b11 )"
b11 g"
b10011 -"
b1100001000000110010011 ;
b1100001000000110010011 E
b1100001000000110010011 ,"
b1100001000000110010011 _"
b1100001000000110010011 d"
b1000 `"
b1000 6
b1000 ^"
b1000 b"
b100 7
b100 ]"
b100 a"
b100 c"
1$
#260
0$
#270
b11111111111111111111111100010000 )
b11111111111111111111111100010000 h"
b100 1
b100 e
b11111111111111111111111100010000 @
b11111111111111111111111100010000 &"
b11111111111111111111111100010000 R"
b11111111111111111111111100010000 W"
b11111111111111111111111100010000 \"
b101 ?
b101 f
b101 M"
1<
1(
b1 :
b1 D
b1 O"
b10 /
b10 *"
b10 f"
b1 /"
b10 A
b10 c
b1000001001000110010011 ;
b1000001001000110010011 E
b1000001001000110010011 ,"
b1000001001000110010011 _"
b1000001001000110010011 d"
b1100 `"
b1100 6
b1100 ^"
b1100 b"
b1000 7
b1000 ]"
b1000 a"
b1000 c"
1B
b11 2
b11 '"
b11 U"
b11 Z"
b11 i"
1$
#280
0$
#290
b1 )
b1 h"
b0 ,
b0 V"
b0 Y"
b110 1
b110 e
0B
b1 @
b1 &"
b1 R"
b1 W"
b1 \"
b11111111111111111111111100010000 2
b11111111111111111111111100010000 '"
b11111111111111111111111100010000 U"
b11111111111111111111111100010000 Z"
b11111111111111111111111100010000 i"
1<
1(
b1 :
b1 D
b1 O"
b1010 ?
b1010 f
b1010 M"
b11 /
b11 *"
b11 f"
b10 /"
b11 A
b11 c
b1100001010000110010011 ;
b1100001010000110010011 E
b1100001010000110010011 ,"
b1100001010000110010011 _"
b1100001010000110010011 d"
b10000 `"
b10000 6
b10000 ^"
b10000 b"
b1100 7
b1100 ]"
b1100 a"
b1100 c"
1$
#300
0$
#310
b11111111111111111111111111110111 )
b11111111111111111111111111110111 h"
bx ,
bx V"
bx Y"
b11111111111111111111111111110111 @
b11111111111111111111111111110111 &"
b11111111111111111111111111110111 R"
b11111111111111111111111111110111 W"
b11111111111111111111111111110111 \"
1<
1(
b1 :
b1 D
b1 O"
b100 ?
b100 f
b100 M"
b100 /"
b1100001100000110010011 ;
b1100001100000110010011 E
b1100001100000110010011 ,"
b1100001100000110010011 _"
b1100001100000110010011 d"
b10100 `"
b10100 6
b10100 ^"
b10100 b"
b10000 7
b10000 ]"
b10000 a"
b10000 c"
1B
b1 2
b1 '"
b1 U"
b1 Z"
b1 i"
1$
#320
0$
#330
b1111111111111111111111111111 )
b1111111111111111111111111111 h"
b100 1
b100 e
b1111111111111111111111111111 @
b1111111111111111111111111111 &"
b1111111111111111111111111111 R"
b1111111111111111111111111111 W"
b1111111111111111111111111111 \"
1<
1(
b1 :
b1 D
b1 O"
b110 ?
b110 f
b110 M"
b10 /
b10 *"
b10 f"
b101 /"
b10 A
b10 c
b1000001101000110010011 ;
b1000001101000110010011 E
b1000001101000110010011 ,"
b1000001101000110010011 _"
b1000001101000110010011 d"
b11000 `"
b11000 6
b11000 ^"
b11000 b"
b10100 7
b10100 ]"
b10100 a"
b10100 c"
b11 2
b11 '"
b11 U"
b11 Z"
b11 i"
1$
#340
0$
#350
b11111111111111111111111111111111 )
b11111111111111111111111111111111 h"
b11111111111111111111111111111111 @
b11111111111111111111111111111111 &"
b11111111111111111111111111111111 R"
b11111111111111111111111111111111 W"
b11111111111111111111111111111111 \"
1<
1(
b1 :
b1 D
b1 O"
b111 ?
b111 f
b111 M"
b100000 ."
b1000000001000001101000110010011 ;
b1000000001000001101000110010011 E
b1000000001000001101000110010011 ,"
b1000000001000001101000110010011 _"
b1000000001000001101000110010011 d"
b11100 `"
b11100 6
b11100 ^"
b11100 b"
b11000 7
b11000 ]"
b11000 a"
b11000 c"
1$
#360
0$
#370
b11111111111111111111111111110111 )
b11111111111111111111111111110111 h"
b110 1
b110 e
b11111111111111111111111111110111 @
b11111111111111111111111111110111 &"
b11111111111111111111111111110111 R"
b11111111111111111111111111110111 W"
b11111111111111111111111111110111 \"
b11111111111111111111111111111111 2
b11111111111111111111111111111111 '"
b11111111111111111111111111111111 U"
b11111111111111111111111111111111 Z"
b11111111111111111111111111111111 i"
1<
1(
b1 :
b1 D
b1 O"
b11 ?
b11 f
b11 M"
b0 ."
b11 /
b11 *"
b11 f"
b110 /"
b11 A
b11 c
b1100001110000110010011 ;
b1100001110000110010011 E
b1100001110000110010011 ,"
b1100001110000110010011 _"
b1100001110000110010011 d"
b100000 `"
b100000 6
b100000 ^"
b100000 b"
b11100 7
b11100 ]"
b11100 a"
b11100 c"
1$
#380
0$
#390
b0 )
b0 h"
b0 ,
b0 V"
b0 Y"
b0 @
b0 &"
b0 R"
b0 W"
b0 \"
1<
1(
b1 :
b1 D
b1 O"
b10 ?
b10 f
b10 M"
b111 /"
b1100001111000110010011 ;
b1100001111000110010011 E
b1100001111000110010011 ,"
b1100001111000110010011 _"
b1100001111000110010011 d"
b100100 `"
b100100 6
b100100 ^"
b100100 b"
b100000 7
b100000 ]"
b100000 a"
b100000 c"
b11111111111111111111111111110111 2
b11111111111111111111111111110111 '"
b11111111111111111111111111110111 U"
b11111111111111111111111111110111 Z"
b11111111111111111111111111110111 i"
1$
#400
1'
b0 3
b0 d
0B
1C
b0 2
b0 '"
b0 U"
b0 Z"
b0 i"
b0 4
b0 ("
b0 j"
b0 /
b0 *"
b0 f"
b0 0
b0 +"
b0 e"
b0 /"
b0 .
b0 )"
b0 g"
b0 -"
b0 ;
b0 E
b0 ,"
b0 _"
b0 d"
b100 `"
b100 6
b100 ^"
b100 b"
b0 7
b0 ]"
b0 a"
b0 c"
b0 )
b0 h"
b0 1
b0 e
b0 ,
b0 V"
b0 Y"
b0 A
b0 c
b0 @
b0 &"
b0 R"
b0 W"
b0 \"
0<
0(
b0 :
b0 D
b0 O"
b0 ?
b0 f
b0 M"
b10000000000 ["
0$
1%
#410
b10000000000 ["
1$
#420
19
0$
0%
#430
0'
b100 )
b100 h"
b100 @
b100 &"
b100 R"
b100 W"
b100 \"
b100 3
b100 d
0C
b1 2
b1 '"
b1 U"
b1 Z"
b1 i"
b100 4
b100 ("
b100 j"
b10 :
b10 D
b10 O"
1<
1*
09
b10 /
b10 *"
b10 f"
b1 0
b1 +"
b1 e"
b100011 -"
b1000001000000000100011 ;
b1000001000000000100011 E
b1000001000000000100011 ,"
b1000001000000000100011 _"
b1000001000000000100011 d"
b1000 `"
b1000 6
b1000 ^"
b1000 b"
b100 7
b100 ]"
b100 a"
b100 c"
1$
#440
0$
#450
b1 )
b1 h"
b100 @
b100 &"
b100 R"
b100 W"
b100 \"
b0 1
b0 e
b0 2
b0 '"
b0 U"
b0 Z"
b0 i"
b1 +
b1 Q"
1-
1(
1<
0*
b1 :
b1 D
b1 O"
b0 /
b0 *"
b0 f"
b11 .
b11 )"
b11 g"
b11 -"
b0 A
b0 c
b1000000110000011 ;
b1000000110000011 E
b1000000110000011 ,"
b1000000110000011 _"
b1000000110000011 d"
b1100 `"
b1100 6
b1100 ^"
b1100 b"
b1 ,
b1 V"
b1 Y"
b1000 7
b1000 ]"
b1000 a"
b1000 c"
1$
#460
1'
b0 @
b0 &"
b0 R"
b0 W"
b0 \"
b0 3
b0 d
1C
b0 4
b0 ("
b0 j"
b0 0
b0 +"
b0 e"
b0 .
b0 )"
b0 g"
b0 -"
b0 ;
b0 E
b0 ,"
b0 _"
b0 d"
b100 `"
b100 6
b100 ^"
b100 b"
b0 ,
b0 V"
b0 Y"
b0 7
b0 ]"
b0 a"
b0 c"
b0 )
b0 h"
0<
b0 +
b0 Q"
0-
0(
b0 :
b0 D
b0 O"
b10000000000 ["
0$
1%
#470
b10000000000 ["
1$
#480
19
0$
0%
#490
b1100 )
b1100 h"
b1000 1
b1000 e
b1100 @
b1100 &"
b1100 R"
b1100 W"
b1100 \"
b100 3
b100 d
b100 A
b100 c
b1101 2
b1101 '"
b1101 U"
b1101 Z"
b1101 i"
b1101 4
b1101 ("
b1101 j"
1<
1>
15
b11 :
b11 D
b11 O"
09
b10 /
b10 *"
b10 f"
b1 0
b1 +"
b1 e"
b100 .
b100 )"
b100 g"
b1100011 -"
b1000001000001001100011 ;
b1000001000001001100011 E
b1000001000001001100011 ,"
b1000001000001001100011 _"
b1000001000001001100011 d"
b1100 `"
b1000 6
b1000 ^"
b1000 b"
b100 7
b100 ]"
b100 a"
b100 c"
1$
#500
0$
#510
0'
b110 1
b110 e
b0 )
b0 h"
0C
b11111111111111111111111111110111 2
b11111111111111111111111111110111 '"
b11111111111111111111111111110111 U"
b11111111111111111111111111110111 Z"
b11111111111111111111111111110111 i"
b1010 ?
b1010 f
b1010 M"
1(
0>
1<
05
b1 :
b1 D
b1 O"
b10000 `"
b11 /
b11 *"
b11 f"
b10 /"
b11 .
b11 )"
b11 g"
b10011 -"
b11 A
b11 c
b0 @
b0 &"
b0 R"
b0 W"
b0 \"
b1100001010000110010011 ;
b1100001010000110010011 E
b1100001010000110010011 ,"
b1100001010000110010011 _"
b1100001010000110010011 d"
b10000 6
b10000 ^"
b10000 b"
b1101 3
b1101 d
b1100 7
b1100 ]"
b1100 a"
b1100 c"
1$
#520
1'
b0 ,
b0 V"
b0 Y"
b0 3
b0 d
1C
b0 2
b0 '"
b0 U"
b0 Z"
b0 i"
b0 4
b0 ("
b0 j"
b0 /
b0 *"
b0 f"
b0 0
b0 +"
b0 e"
b0 /"
b0 .
b0 )"
b0 g"
b0 -"
b0 ;
b0 E
b0 ,"
b0 _"
b0 d"
b100 `"
b100 6
b100 ^"
b100 b"
b0 7
b0 ]"
b0 a"
b0 c"
b0 )
b0 h"
b0 1
b0 e
b0 A
b0 c
b0 @
b0 &"
b0 R"
b0 W"
b0 \"
0<
0(
b0 :
b0 D
b0 O"
b0 ?
b0 f
b0 M"
b10000000000 ["
0$
1%
#530
b10000000000 ["
1$
#540
19
0$
0%
#550
1'
b1100 )
b1100 h"
b1000 1
b1000 e
b1100 @
b1100 &"
b1100 R"
b1100 W"
b1100 \"
1B
0C
b100 3
b100 d
b100 A
b100 c
b1101 2
b1101 '"
b1101 U"
b1101 Z"
b1101 i"
b1 4
b1 ("
b1 j"
b1 =
b1 N"
1<
1>
15
b11 :
b11 D
b11 O"
09
b10 /
b10 *"
b10 f"
b1 0
b1 +"
b1 e"
b1 /"
b100 .
b100 )"
b100 g"
b1100011 -"
b1000001001001001100011 ;
b1000001001001001100011 E
b1000001001001001100011 ,"
b1000001001001001100011 _"
b1000001001001001100011 d"
b1100 `"
b1000 6
b1000 ^"
b1000 b"
b100 7
b100 ]"
b100 a"
b100 c"
1$
#560
0$
#570
0'
b110 1
b110 e
b1 )
b1 h"
0B
b11111111111111111111111111110111 2
b11111111111111111111111111110111 '"
b11111111111111111111111111110111 U"
b11111111111111111111111111110111 Z"
b11111111111111111111111111110111 i"
b1010 ?
b1010 f
b1010 M"
1(
0>
b0 =
b0 N"
1<
05
b1 :
b1 D
b1 O"
b10000 `"
b11 /
b11 *"
b11 f"
b10 /"
b11 .
b11 )"
b11 g"
b10011 -"
b11 A
b11 c
b1 @
b1 &"
b1 R"
b1 W"
b1 \"
b1100001010000110010011 ;
b1100001010000110010011 E
b1100001010000110010011 ,"
b1100001010000110010011 _"
b1100001010000110010011 d"
b10000 6
b10000 ^"
b10000 b"
b1 3
b1 d
b1100 7
b1100 ]"
b1100 a"
b1100 c"
1$
#580
1'
b0 3
b0 d
1C
b0 2
b0 '"
b0 U"
b0 Z"
b0 i"
b0 4
b0 ("
b0 j"
b0 /
b0 *"
b0 f"
b0 0
b0 +"
b0 e"
b0 /"
b0 .
b0 )"
b0 g"
b0 -"
b0 ;
b0 E
b0 ,"
b0 _"
b0 d"
b100 `"
b100 6
b100 ^"
b100 b"
b0 7
b0 ]"
b0 a"
b0 c"
b0 ,
b0 V"
b0 Y"
b0 )
b0 h"
b0 1
b0 e
b0 A
b0 c
b0 @
b0 &"
b0 R"
b0 W"
b0 \"
0<
0(
b0 :
b0 D
b0 O"
b0 ?
b0 f
b0 M"
b10000000000 ["
0$
1%
#590
b10000000000 ["
1$
#600
19
0$
0%
