uart/receiver.vcd
$date
	Tue Nov  7 15:51:42 2023
$end
$version
	Icarus Verilog
$end
$timescale
	1s
$end
$scope module receiver_tb $end
$var wire 1 ! rx_done $end
$var wire 8 " rx_data [7:0] $end
$var parameter 64 # BIT_PERIOD $end
$var parameter 32 $ DATA_BITS $end
$var parameter 64 % HALF_BIT_PERIOD $end
$var parameter 1 & START_BIT $end
$var parameter 1 ' STOP_BIT $end
$var parameter 32 ( T_CLK $end
$var reg 1 ) reset $end
$var reg 1 * rx_clk $end
$var reg 1 + rx_serial $end
$scope module uut $end
$var wire 1 ) reset $end
$var wire 1 * rx_clk $end
$var wire 1 + rx_serial $end
$var parameter 32 , SAMPLES_PER_BIT $end
$var parameter 32 - SAMPLE_POINT $end
$var reg 4 . bit_index [3:0] $end
$var reg 8 / rx_data [7:0] $end
$var reg 1 ! rx_done $end
$var reg 4 0 sample_count [3:0] $end
$var reg 8 1 shift_reg [7:0] $end
$var reg 3 2 state [2:0] $end
$upscope $end
$scope task send_bit $end
$var reg 1 3 bit_to_send $end
$upscope $end
$upscope $end
$enddefinitions $end
$comment Show the parameter values. $end
$dumpall
b111 -
b1111 ,
b1010 (
1'
0&
b1010000 %
b1000 $
b10100000 #
$end
#0
$dumpvars
x3
b0 2
b0 1
b0 0
b0 /
b0 .
1+
0*
1)
b0 "
0!
$end
#5
1*
#10
0*
#15
1*
#20
0*
0+
0)
#25
b1 2
1*
#30
0*
#35
b1 0
1*
#40
0*
#45
b10 0
1*
#50
0*
#55
b11 0
1*
#60
0*
#65
b100 0
1*
#70
0*
#75
b101 0
1*
#80
0*
#85
b110 0
1*
#90
0*
#95
b111 0
1*
#100
0*
#105
b10 2
b1000 0
1*
#110
0*
#115
b1001 0
1*
#120
0*
#125
b1010 0
1*
#130
0*
#135
b1011 0
1*
#140
0*
#145
b1100 0
1*
#150
0*
#155
b1101 0
1*
#160
0*
#165
b1110 0
1*
#170
0*
#175
b1111 0
1*
#180
0*
1+
13
#185
b1 .
b1 1
b0 0
1*
#190
0*
#195
b1 0
1*
#200
0*
#205
b10 0
1*
#210
0*
#215
b11 0
1*
#220
0*
#225
b100 0
1*
#230
0*
#235
b101 0
1*
#240
0*
#245
b110 0
1*
#250
0*
#255
b111 0
1*
#260
0*
#265
b1000 0
1*
#270
0*
#275
b1001 0
1*
#280
0*
#285
b1010 0
1*
#290
0*
#295
b1011 0
1*
#300
0*
#305
b1100 0
1*
#310
0*
#315
b1101 0
1*
#320
0*
#325
b1110 0
1*
#330
0*
#335
b1111 0
1*
#340
0*
0+
03
#345
b10 .
b0 0
1*
#350
0*
#355
b1 0
1*
#360
0*
#365
b10 0
1*
#370
0*
#375
b11 0
1*
#380
0*
#385
b100 0
1*
#390
0*
#395
b101 0
1*
#400
0*
#405
b110 0
1*
#410
0*
#415
b111 0
1*
#420
0*
#425
b1000 0
1*
#430
0*
#435
b1001 0
1*
#440
0*
#445
b1010 0
1*
#450
0*
#455
b1011 0
1*
#460
0*
#465
b1100 0
1*
#470
0*
#475
b1101 0
1*
#480
0*
#485
b1110 0
1*
#490
0*
#495
b1111 0
1*
#500
0*
1+
13
#505
b11 .
b101 1
b0 0
1*
#510
0*
#515
b1 0
1*
#520
0*
#525
b10 0
1*
#530
0*
#535
b11 0
1*
#540
0*
#545
b100 0
1*
#550
0*
#555
b101 0
1*
#560
0*
#565
b110 0
1*
#570
0*
#575
b111 0
1*
#580
0*
#585
b1000 0
1*
#590
0*
#595
b1001 0
1*
#600
0*
#605
b1010 0
1*
#610
0*
#615
b1011 0
1*
#620
0*
#625
b1100 0
1*
#630
0*
#635
b1101 0
1*
#640
0*
#645
b1110 0
1*
#650
0*
#655
b1111 0
1*
#660
0*
0+
03
#665
b100 .
b0 0
1*
#670
0*
#675
b1 0
1*
#680
0*
#685
b10 0
1*
#690
0*
#695
b11 0
1*
#700
0*
#705
b100 0
1*
#710
0*
#715
b101 0
1*
#720
0*
#725
b110 0
1*
#730
0*
#735
b111 0
1*
#740
0*
#745
b1000 0
1*
#750
0*
#755
b1001 0
1*
#760
0*
#765
b1010 0
1*
#770
0*
#775
b1011 0
1*
#780
0*
#785
b1100 0
1*
#790
0*
#795
b1101 0
1*
#800
0*
#805
b1110 0
1*
#810
0*
#815
b1111 0
1*
#820
0*
1+
13
#825
b101 .
b10101 1
b0 0
1*
#830
0*
#835
b1 0
1*
#840
0*
#845
b10 0
1*
#850
0*
#855
b11 0
1*
#860
0*
#865
b100 0
1*
#870
0*
#875
b101 0
1*
#880
0*
#885
b110 0
1*
#890
0*
#895
b111 0
1*
#900
0*
#905
b1000 0
1*
#910
0*
#915
b1001 0
1*
#920
0*
#925
b1010 0
1*
#930
0*
#935
b1011 0
1*
#940
0*
#945
b1100 0
1*
#950
0*
#955
b1101 0
1*
#960
0*
#965
b1110 0
1*
#970
0*
#975
b1111 0
1*
#980
0*
0+
03
#985
b110 .
b0 0
1*
#990
0*
#995
b1 0
1*
#1000
0*
#1005
b10 0
1*
#1010
0*
#1015
b11 0
1*
#1020
0*
#1025
b100 0
1*
#1030
0*
#1035
b101 0
1*
#1040
0*
#1045
b110 0
1*
#1050
0*
#1055
b111 0
1*
#1060
0*
#1065
b1000 0
1*
#1070
0*
#1075
b1001 0
1*
#1080
0*
#1085
b1010 0
1*
#1090
0*
#1095
b1011 0
1*
#1100
0*
#1105
b1100 0
1*
#1110
0*
#1115
b1101 0
1*
#1120
0*
#1125
b1110 0
1*
#1130
0*
#1135
b1111 0
1*
#1140
0*
1+
13
#1145
b111 .
b1010101 1
b0 0
1*
#1150
0*
#1155
b1 0
1*
#1160
0*
#1165
b10 0
1*
#1170
0*
#1175
b11 0
1*
#1180
0*
#1185
b100 0
1*
#1190
0*
#1195
b101 0
1*
#1200
0*
#1205
b110 0
1*
#1210
0*
#1215
b111 0
1*
#1220
0*
#1225
b1000 0
1*
#1230
0*
#1235
b1001 0
1*
#1240
0*
#1245
b1010 0
1*
#1250
0*
#1255
b1011 0
1*
#1260
0*
#1265
b1100 0
1*
#1270
0*
#1275
b1101 0
1*
#1280
0*
#1285
b1110 0
1*
#1290
0*
#1295
b1111 0
1*
#1300
0*
0+
03
#1305
b11 2
b1000 .
b0 0
1*
#1310
0*
#1315
b1 0
1*
#1320
0*
#1325
b10 0
1*
#1330
0*
#1335
b11 0
1*
#1340
0*
#1345
b100 0
1*
#1350
0*
#1355
b101 0
1*
#1360
0*
#1365
b110 0
1*
#1370
0*
#1375
b111 0
1*
#1380
0*
#1385
b1000 0
1*
#1390
0*
#1395
b1001 0
1*
#1400
0*
#1405
b1010 0
1*
#1410
0*
#1415
b1011 0
1*
#1420
0*
#1425
b1100 0
1*
#1430
0*
#1435
b1101 0
1*
#1440
0*
#1445
b1110 0
1*
#1450
0*
#1455
b1111 0
1*
#1460
0*
1+
#1465
b0 2
1!
b1010101 "
b1010101 /
b0 0
1*
