uart/transceiver.vcd
$date
	Mon Nov 13 23:05:22 2023
$end
$version
	Icarus Verilog
$end
$timescale
	1ps
$end
$scope module transceiver_tb $end
$scope module tx_uut $end
$var wire 1 ! clk $end
$var wire 8 " data_in [7:0] $end
$var wire 1 # reset $end
$var wire 1 $ tx_start $end
$var reg 3 % Dctr [2:0] $end
$var reg 3 & state [2:0] $end
$var reg 1 ' tx_busy $end
$var reg 1 ( tx_line $end
$upscope $end
$upscope $end
$scope module transceiver_tb $end
$scope module rx_uut $end
$var wire 1 # reset $end
$var wire 1 ) rx_clk $end
$var wire 1 * rx_serial $end
$var parameter 32 + SAMPLES_PER_BIT $end
$var parameter 32 , SAMPLE_POINT $end
$var reg 4 - bit_index [3:0] $end
$var reg 8 . rx_data [7:0] $end
$var reg 1 / rx_done $end
$var reg 4 0 sample_count [3:0] $end
$var reg 8 1 shift_reg [7:0] $end
$var reg 3 2 state [2:0] $end
$upscope $end
$upscope $end
$enddefinitions $end
$comment Show the parameter values. $end
$dumpall
b111 ,
b1111 +
$end
#0
$dumpvars
b0 2
b0 1
b0 0
0/
b0 .
b0 -
1*
0)
1(
0'
b0 &
b0 %
0$
1#
b0 "
0!
$end
#5000
1)
#10000
0)
#15000
1)
#20000
0)
#25000
1)
#30000
0)
#35000
1)
#40000
0)
#45000
1)
#50000
0)
#55000
1)
#60000
0)
#65000
1)
#70000
0)
#75000
1)
#80000
1'
0*
0(
b1 &
0)
1$
b1001101 "
0#
1!
#85000
b1 2
1)
#90000
0)
#95000
b1 0
1)
#100000
0)
#105000
b10 0
1)
#110000
0)
#115000
b11 0
1)
#120000
0)
#125000
b100 0
1)
#130000
0)
#135000
b101 0
1)
#140000
0)
#145000
b110 0
1)
#150000
0)
#155000
b111 0
1)
#160000
0)
0!
#165000
b10 2
b0 0
1)
#170000
0)
#175000
b1 0
1)
#180000
0)
#185000
b10 0
1)
#190000
0)
#195000
b11 0
1)
#200000
0)
#205000
b100 0
1)
#210000
0)
#215000
b101 0
1)
#220000
0)
#225000
b110 0
1)
#230000
0)
#235000
b111 0
1)
#240000
1*
1(
b10 &
0)
1!
0$
#245000
b1000 0
1)
#250000
0)
#255000
b1001 0
1)
#260000
0)
#265000
b1010 0
1)
#270000
0)
#275000
b1011 0
1)
#280000
0)
#285000
b1100 0
1)
#290000
0)
#295000
b1101 0
1)
#300000
0)
#305000
b1110 0
1)
#310000
0)
#315000
b1111 0
1)
#320000
0)
0!
#325000
b1 -
b1 1
b0 0
1)
#330000
0)
#335000
b1 0
1)
#340000
0)
#345000
b10 0
1)
#350000
0)
#355000
b11 0
1)
#360000
0)
#365000
b100 0
1)
#370000
0)
#375000
b101 0
1)
#380000
0)
#385000
b110 0
1)
#390000
0)
#395000
b111 0
1)
#400000
0*
0(
b1 %
0)
1!
#405000
b1000 0
1)
#410000
0)
#415000
b1001 0
1)
#420000
0)
#425000
b1010 0
1)
#430000
0)
#435000
b1011 0
1)
#440000
0)
#445000
b1100 0
1)
#450000
0)
#455000
b1101 0
1)
#460000
0)
#465000
b1110 0
1)
#470000
0)
#475000
b1111 0
1)
#480000
0)
0!
#485000
b10 -
b0 0
1)
#490000
0)
#495000
b1 0
1)
#500000
0)
#505000
b10 0
1)
#510000
0)
#515000
b11 0
1)
#520000
0)
#525000
b100 0
1)
#530000
0)
#535000
b101 0
1)
#540000
0)
#545000
b110 0
1)
#550000
0)
#555000
b111 0
1)
#560000
1*
1(
b10 %
0)
1!
#565000
b1000 0
1)
#570000
0)
#575000
b1001 0
1)
#580000
0)
#585000
b1010 0
1)
#590000
0)
#595000
b1011 0
1)
#600000
0)
#605000
b1100 0
1)
#610000
0)
#615000
b1101 0
1)
#620000
0)
#625000
b1110 0
1)
#630000
0)
#635000
b1111 0
1)
#640000
0)
0!
#645000
b11 -
b101 1
b0 0
1)
#650000
0)
#655000
b1 0
1)
#660000
0)
#665000
b10 0
1)
#670000
0)
#675000
b11 0
1)
#680000
0)
#685000
b100 0
1)
#690000
0)
#695000
b101 0
1)
#700000
0)
#705000
b110 0
1)
#710000
0)
#715000
b111 0
1)
#720000
b11 %
0)
1!
#725000
b1000 0
1)
#730000
0)
#735000
b1001 0
1)
#740000
0)
#745000
b1010 0
1)
#750000
0)
#755000
b1011 0
1)
#760000
0)
#765000
b1100 0
1)
#770000
0)
#775000
b1101 0
1)
#780000
0)
#785000
b1110 0
1)
#790000
0)
#795000
b1111 0
1)
#800000
0)
0!
#805000
b100 -
b1101 1
b0 0
1)
#810000
0)
#815000
b1 0
1)
#820000
0)
#825000
b10 0
1)
#830000
0)
#835000
b11 0
1)
#840000
0)
#845000
b100 0
1)
#850000
0)
#855000
b101 0
1)
#860000
0)
#865000
b110 0
1)
#870000
0)
#875000
b111 0
1)
#880000
0*
0(
b100 %
0)
1!
#885000
b1000 0
1)
#890000
0)
#895000
b1001 0
1)
#900000
0)
#905000
b1010 0
1)
#910000
0)
#915000
b1011 0
1)
#920000
0)
#925000
b1100 0
1)
#930000
0)
#935000
b1101 0
1)
#940000
0)
#945000
b1110 0
1)
#950000
0)
#955000
b1111 0
1)
#960000
0)
0!
#965000
b101 -
b0 0
1)
#970000
0)
#975000
b1 0
1)
#980000
0)
#985000
b10 0
1)
#990000
0)
#995000
b11 0
1)
#1000000
0)
#1005000
b100 0
1)
#1010000
0)
#1015000
b101 0
1)
#1020000
0)
#1025000
b110 0
1)
#1030000
0)
#1035000
b111 0
1)
#1040000
b101 %
0)
1!
#1045000
b1000 0
1)
#1050000
0)
#1055000
b1001 0
1)
#1060000
0)
#1065000
b1010 0
1)
#1070000
0)
#1075000
b1011 0
1)
#1080000
0)
#1085000
b1100 0
1)
#1090000
0)
#1095000
b1101 0
1)
#1100000
0)
#1105000
b1110 0
1)
#1110000
0)
#1115000
b1111 0
1)
#1120000
0)
0!
#1125000
b110 -
b0 0
1)
#1130000
0)
#1135000
b1 0
1)
#1140000
0)
#1145000
b10 0
1)
#1150000
0)
#1155000
b11 0
1)
#1160000
0)
#1165000
b100 0
1)
#1170000
0)
#1175000
b101 0
1)
#1180000
0)
#1185000
b110 0
1)
#1190000
0)
#1195000
b111 0
1)
#1200000
1*
1(
b110 %
0)
1!
#1205000
b1000 0
1)
#1210000
0)
#1215000
b1001 0
1)
#1220000
0)
#1225000
b1010 0
1)
#1230000
0)
#1235000
b1011 0
1)
#1240000
0)
#1245000
b1100 0
1)
#1250000
0)
#1255000
b1101 0
1)
#1260000
0)
#1265000
b1110 0
1)
#1270000
0)
#1275000
b1111 0
1)
#1280000
0)
0!
#1285000
b111 -
b1001101 1
b0 0
1)
#1290000
0)
#1295000
b1 0
1)
#1300000
0)
#1305000
b10 0
1)
#1310000
0)
#1315000
b11 0
1)
#1320000
0)
#1325000
b100 0
1)
#1330000
0)
#1335000
b101 0
1)
#1340000
0)
#1345000
b110 0
1)
#1350000
0)
#1355000
b111 0
1)
#1360000
0*
0(
b111 %
0)
1!
#1365000
b1000 0
1)
#1370000
0)
#1375000
b1001 0
1)
#1380000
0)
#1385000
b1010 0
1)
#1390000
0)
#1395000
b1011 0
1)
#1400000
0)
#1405000
b1100 0
1)
#1410000
0)
#1415000
b1101 0
1)
#1420000
0)
#1425000
b1110 0
1)
#1430000
0)
#1435000
b1111 0
1)
#1440000
0)
0!
#1445000
b11 2
b1000 -
b0 0
1)
#1450000
0)
#1455000
b1 0
1)
#1460000
0)
#1465000
b10 0
1)
#1470000
0)
#1475000
b11 0
1)
#1480000
0)
#1485000
b100 0
1)
#1490000
0)
#1495000
b101 0
1)
#1500000
0)
#1505000
b110 0
1)
#1510000
0)
#1515000
b111 0
1)
#1520000
1*
1(
b11 &
0)
1!
#1525000
b1000 0
1)
#1530000
0)
#1535000
b1001 0
1)
#1540000
0)
#1545000
b1010 0
1)
#1550000
0)
#1555000
b1011 0
1)
#1560000
0)
#1565000
b1100 0
1)
#1570000
0)
#1575000
b1101 0
1)
#1580000
0)
#1585000
b1110 0
1)
#1590000
0)
#1595000
b1111 0
1)
#1600000
0)
0!
#1605000
b0 2
1/
b1001101 .
b0 0
1)
