pipelined_riscv/out/riscv.vcd
$date
	Sun Dec 17 21:08:05 2023
$end
$version
	Icarus Verilog
$end
$timescale
	1s
$end
$scope module riscv_tb $end
$var parameter 32 ! CLOCK_PERIOD $end
$var parameter 65 " INSTR_DURATION $end
$var parameter 32 # NUM_STAGES $end
$var reg 1 $ clk $end
$var reg 1 % rst $end
$scope module uut $end
$var wire 1 $ clk $end
$var wire 1 % rst $end
$var wire 1 & WB_RegWrite $end
$var wire 32 ' WB_RegWData [31:0] $end
$var wire 5 ( WB_RegRd [4:0] $end
$var wire 32 ) Stalled_Instr [31:0] $end
$var wire 1 * StallPc $end
$var wire 1 + MEM_Wmem $end
$var wire 1 , MEM_WReg $end
$var wire 2 - MEM_WBsel [1:0] $end
$var wire 32 . MEM_Rmemdata [31:0] $end
$var wire 1 / MEM_Rmem $end
$var wire 5 0 MEM_RegD [4:0] $end
$var wire 32 1 MEM_Pc4 [31:0] $end
$var wire 32 2 MEM_Imm [31:0] $end
$var wire 32 3 MEM_Alu_Result [31:0] $end
$var wire 32 4 IF_Pc4 [31:0] $end
$var wire 32 5 IF_Pc [31:0] $end
$var wire 32 6 IF_Instr [31:0] $end
$var wire 32 7 ID_Wdata [31:0] $end
$var wire 2 8 ID_Wbsel [1:0] $end
$var wire 1 9 ID_Takebranch $end
$var wire 1 : ID_RegWrite $end
$var wire 5 ; ID_RegRd [4:0] $end
$var wire 32 < ID_Rdata2 [31:0] $end
$var wire 32 = ID_Rdata1 [31:0] $end
$var wire 1 > ID_Pcsel $end
$var wire 32 ? ID_PcUpdate [31:0] $end
$var wire 32 @ ID_Pc4 [31:0] $end
$var wire 1 A ID_MemWrite $end
$var wire 1 B ID_MemRead $end
$var wire 32 C ID_Imm [31:0] $end
$var wire 32 D ID_BranchResult [31:0] $end
$var wire 4 E ID_AluOp [3:0] $end
$var wire 1 F EX_Wmem $end
$var wire 32 G EX_Wdata [31:0] $end
$var wire 1 H EX_WReg $end
$var wire 2 I EX_WBsel [1:0] $end
$var wire 1 J EX_Rmem $end
$var wire 5 K EX_RegD [4:0] $end
$var wire 32 L EX_Pc4 [31:0] $end
$var wire 32 M EX_Imm [31:0] $end
$var wire 32 N EX_Alu_Result [31:0] $end
$var reg 32 O Instr [31:0] $end
$var reg 32 P Pc [31:0] $end
$scope module dmem $end
$var wire 1 $ clk $end
$var wire 1 % rst $end
$var wire 32 Q MemRData [31:0] $end
$var wire 1 F EX_Wmem $end
$var wire 32 R EX_Wdata [31:0] $end
$var wire 1 H EX_WReg $end
$var wire 2 S EX_WBsel [1:0] $end
$var wire 1 J EX_Rmem $end
$var wire 5 T EX_RegD [4:0] $end
$var wire 32 U EX_Pc4 [31:0] $end
$var wire 32 V EX_Imm [31:0] $end
$var wire 32 W EX_Alu_Result [31:0] $end
$var reg 32 X MEM_Alu_Result [31:0] $end
$var reg 32 Y MEM_Imm [31:0] $end
$var reg 32 Z MEM_Pc4 [31:0] $end
$var reg 5 [ MEM_RegD [4:0] $end
$var reg 1 / MEM_Rmem $end
$var reg 32 \ MEM_Rmemdata [31:0] $end
$var reg 2 ] MEM_WBsel [1:0] $end
$var reg 1 , MEM_WReg $end
$var reg 1 + MEM_Wmem $end
$scope module dram $end
$var wire 1 F wmem $end
$var wire 32 ^ wdata [31:0] $end
$var wire 1 J rmem $end
$var wire 32 _ addr [31:0] $end
$var reg 32 ` rdata [31:0] $end
$scope begin $ivl_for_loop1 $end
$var integer 32 a i [31:0] $end
$upscope $end
$upscope $end
$upscope $end
$scope module ex $end
$var wire 1 $ clk $end
$var wire 1 % rst $end
$var wire 32 b alu_result [31:0] $end
$var wire 1 A ID_Wmem $end
$var wire 32 c ID_Wdata [31:0] $end
$var wire 2 d ID_Wbsel [1:0] $end
$var wire 1 : ID_WReg $end
$var wire 1 B ID_Rmem $end
$var wire 5 e ID_RegRd [4:0] $end
$var wire 32 f ID_Rdata2 [31:0] $end
$var wire 32 g ID_Rdata1 [31:0] $end
$var wire 32 h ID_Pc4 [31:0] $end
$var wire 32 i ID_Imm [31:0] $end
$var wire 4 j ID_AluOp [3:0] $end
$var reg 32 k EX_Alu_Result [31:0] $end
$var reg 32 l EX_Imm [31:0] $end
$var reg 32 m EX_Pc4 [31:0] $end
$var reg 5 n EX_RegD [4:0] $end
$var reg 1 J EX_Rmem $end
$var reg 2 o EX_WBsel [1:0] $end
$var reg 1 H EX_WReg $end
$var reg 32 p EX_Wdata [31:0] $end
$var reg 1 F EX_Wmem $end
$scope module alu $end
$var wire 4 q aluop [3:0] $end
$var wire 32 r alu_b [31:0] $end
$var wire 32 s alu_a [31:0] $end
$var parameter 32 t AluOp_ADD $end
$var parameter 32 u AluOp_AND $end
$var parameter 32 v AluOp_DIV $end
$var parameter 32 w AluOp_MUL $end
$var parameter 32 x AluOp_OR $end
$var parameter 32 y AluOp_SLL $end
$var parameter 32 z AluOp_SLTI $end
$var parameter 32 { AluOp_SRA $end
$var parameter 32 | AluOp_SRL $end
$var parameter 32 } AluOp_SUB $end
$var parameter 32 ~ AluOp_XOR $end
$var parameter 32 !" BR_BEQ $end
$var parameter 32 "" BR_BGE $end
$var parameter 32 #" BR_BGEU $end
$var parameter 32 $" BR_BLT $end
$var parameter 32 %" BR_BLTU $end
$var parameter 32 &" BR_BNE $end
$var parameter 32 '" BR_JAL $end
$var parameter 32 (" BR_JALR $end
$var parameter 3 )" InstFormat_I $end
$var parameter 3 *" InstFormat_R $end
$var parameter 3 +" InstFormat_S $end
$var parameter 3 ," InstFormat_SB $end
$var parameter 3 -" InstFormat_U $end
$var parameter 3 ." InstFormat_UJ $end
$var parameter 32 /" NOP $end
$var parameter 32 0" Wb_Imm $end
$var parameter 32 1" Wb_Mem $end
$var parameter 32 2" Wb_Pc4 $end
$var parameter 32 3" Wb_Reg $end
$var reg 32 4" alu_result [31:0] $end
$upscope $end
$upscope $end
$scope module id $end
$var wire 32 5" EXMEM_MemAddr [31:0] $end
$var wire 1 J EXMEM_MemRead $end
$var wire 1 F EXMEM_MemWrite $end
$var wire 5 6" EXMEM_Regd [4:0] $end
$var wire 32 7" IDEX_MemAddr [31:0] $end
$var wire 32 8" IF_Instr [31:0] $end
$var wire 32 9" IF_Pc [31:0] $end
$var wire 32 :" MEMWB_MemAddr [31:0] $end
$var wire 1 / MEMWB_MemRead $end
$var wire 1 + MEMWB_MemWrite $end
$var wire 5 ;" MEMWB_Regd [4:0] $end
$var wire 1 <" NopIFInstr $end
$var wire 1 =" brun $end
$var wire 1 $ clk $end
$var wire 1 % rst $end
$var wire 1 >" wreg $end
$var wire 1 ?" wmem $end
$var wire 2 @" wbsel [1:0] $end
$var wire 1 A" rmem $end
$var wire 5 B" regd [4:0] $end
$var wire 5 C" reg2 [4:0] $end
$var wire 5 D" reg1 [4:0] $end
$var wire 32 E" rdata2_out [31:0] $end
$var wire 32 F" rdata2 [31:0] $end
$var wire 32 G" rdata1_out [31:0] $end
$var wire 32 H" rdata1 [31:0] $end
$var wire 1 I" pcsel $end
$var wire 2 J" memsz [1:0] $end
$var wire 1 K" inst_undef $end
$var wire 3 L" inst_format [2:0] $end
$var wire 1 M" bsel $end
$var wire 3 N" branch_instr [2:0] $end
$var wire 1 O" asel $end
$var wire 4 P" aluop [3:0] $end
$var wire 1 & WB_RegWrite $end
$var wire 32 Q" WB_RegWData [31:0] $end
$var wire 5 R" WB_RegRd [4:0] $end
$var wire 32 S" Imm [31:0] $end
$var wire 32 T" IF_Pc4 [31:0] $end
$var wire 5 U" IDEX_Regd [4:0] $end
$var wire 1 A IDEX_MemWrite $end
$var wire 1 B IDEX_MemRead $end
$var wire 1 V" DataHazardFlush $end
$var wire 1 W" BrLt $end
$var wire 1 X" BrEq $end
$var reg 4 Y" ID_AluOp [3:0] $end
$var reg 32 Z" ID_BranchResult [31:0] $end
$var reg 32 [" ID_Imm [31:0] $end
$var reg 1 B ID_MemRead $end
$var reg 1 A ID_MemWrite $end
$var reg 32 \" ID_Pc4 [31:0] $end
$var reg 1 > ID_Pcsel $end
$var reg 32 ]" ID_Rdata1 [31:0] $end
$var reg 32 ^" ID_Rdata2 [31:0] $end
$var reg 5 _" ID_RegRd [4:0] $end
$var reg 1 : ID_RegWrite $end
$var reg 1 9 ID_TakeBranch $end
$var reg 2 `" ID_Wbsel [1:0] $end
$var reg 32 a" ID_Wdata [31:0] $end
$var reg 32 b" Pc_update [31:0] $end
$var reg 1 * StallPc $end
$var reg 32 c" Stalled_Instr [31:0] $end
$scope module ImmGen $end
$var wire 32 d" Inst [31:0] $end
$var wire 3 e" InstFormat [2:0] $end
$var parameter 32 f" AluOp_ADD $end
$var parameter 32 g" AluOp_AND $end
$var parameter 32 h" AluOp_DIV $end
$var parameter 32 i" AluOp_MUL $end
$var parameter 32 j" AluOp_OR $end
$var parameter 32 k" AluOp_SLL $end
$var parameter 32 l" AluOp_SLTI $end
$var parameter 32 m" AluOp_SRA $end
$var parameter 32 n" AluOp_SRL $end
$var parameter 32 o" AluOp_SUB $end
$var parameter 32 p" AluOp_XOR $end
$var parameter 32 q" BR_BEQ $end
$var parameter 32 r" BR_BGE $end
$var parameter 32 s" BR_BGEU $end
$var parameter 32 t" BR_BLT $end
$var parameter 32 u" BR_BLTU $end
$var parameter 32 v" BR_BNE $end
$var parameter 32 w" BR_JAL $end
$var parameter 32 x" BR_JALR $end
$var parameter 3 y" InstFormat_I $end
$var parameter 3 z" InstFormat_R $end
$var parameter 3 {" InstFormat_S $end
$var parameter 3 |" InstFormat_SB $end
$var parameter 3 }" InstFormat_U $end
$var parameter 3 ~" InstFormat_UJ $end
$var parameter 32 !# NOP $end
$var parameter 32 "# Wb_Imm $end
$var parameter 32 ## Wb_Mem $end
$var parameter 32 $# Wb_Pc4 $end
$var parameter 32 %# Wb_Reg $end
$var reg 32 &# Imm [31:0] $end
$upscope $end
$scope module branchcmp $end
$var wire 1 =" BrUn $end
$var wire 32 '# rs2 [31:0] $end
$var wire 32 (# rs1 [31:0] $end
$var reg 1 X" BrEq $end
$var reg 1 W" BrLt $end
$upscope $end
$scope module ctl $end
$var wire 1 $ clk $end
$var wire 32 )# idata [31:0] $end
$var wire 1 % rst $end
$var wire 5 *# regd [4:0] $end
$var wire 5 +# reg2 [4:0] $end
$var wire 5 ,# reg1 [4:0] $end
$var wire 7 -# OpCode [6:0] $end
$var wire 7 .# Funct7 [6:0] $end
$var wire 3 /# Funct3 [2:0] $end
$var parameter 32 0# AluOp_ADD $end
$var parameter 32 1# AluOp_AND $end
$var parameter 32 2# AluOp_DIV $end
$var parameter 32 3# AluOp_MUL $end
$var parameter 32 4# AluOp_OR $end
$var parameter 32 5# AluOp_SLL $end
$var parameter 32 6# AluOp_SLTI $end
$var parameter 32 7# AluOp_SRA $end
$var parameter 32 8# AluOp_SRL $end
$var parameter 32 9# AluOp_SUB $end
$var parameter 32 :# AluOp_XOR $end
$var parameter 32 ;# BR_BEQ $end
$var parameter 32 <# BR_BGE $end
$var parameter 32 =# BR_BGEU $end
$var parameter 32 ># BR_BLT $end
$var parameter 32 ?# BR_BLTU $end
$var parameter 32 @# BR_BNE $end
$var parameter 32 A# BR_JAL $end
$var parameter 32 B# BR_JALR $end
$var parameter 3 C# InstFormat_I $end
$var parameter 3 D# InstFormat_R $end
$var parameter 3 E# InstFormat_S $end
$var parameter 3 F# InstFormat_SB $end
$var parameter 3 G# InstFormat_U $end
$var parameter 3 H# InstFormat_UJ $end
$var parameter 32 I# NOP $end
$var parameter 32 J# Wb_Imm $end
$var parameter 32 K# Wb_Mem $end
$var parameter 32 L# Wb_Pc4 $end
$var parameter 32 M# Wb_Reg $end
$var reg 4 N# aluop [3:0] $end
$var reg 1 O" asel $end
$var reg 3 O# branch_instr [2:0] $end
$var reg 1 M" bsel $end
$var reg 3 P# inst_format [2:0] $end
$var reg 1 K" inst_undef $end
$var reg 2 Q# memsz [1:0] $end
$var reg 1 I" pcsel $end
$var reg 1 A" rmem $end
$var reg 2 R# wbsel [1:0] $end
$var reg 1 ?" wmem $end
$var reg 1 >" wreg $end
$upscope $end
$scope module hazard_detection_unit $end
$var wire 1 V" DataHazardFlush $end
$var wire 32 S# EX_MemAddr [31:0] $end
$var wire 1 J EX_MemRead $end
$var wire 1 F EX_MemWrite $end
$var wire 5 T# EX_Regd [4:0] $end
$var wire 32 U# ID_MemAddr [31:0] $end
$var wire 1 B ID_MemRead $end
$var wire 1 A ID_MemWrite $end
$var wire 5 V# ID_Regd [4:0] $end
$var wire 32 W# MEM_MemAddr [31:0] $end
$var wire 1 / MEM_MemRead $end
$var wire 1 + MEM_MemWrite $end
$var wire 5 X# MEM_Regd [4:0] $end
$var wire 32 Y# Mem_Addr [31:0] $end
$var wire 1 A" Mem_Read $end
$var wire 5 Z# Rega [4:0] $end
$var wire 5 [# Regb [4:0] $end
$var wire 1 <" isNOP $end
$upscope $end
$scope module regfile $end
$var wire 1 $ clk $end
$var wire 5 \# raddr1 [4:0] $end
$var wire 5 ]# raddr2 [4:0] $end
$var wire 1 & wreg $end
$var wire 32 ^# wrdata [31:0] $end
$var wire 5 _# waddr [4:0] $end
$var wire 32 `# rdata2 [31:0] $end
$var wire 32 a# rdata1 [31:0] $end
$scope begin $ivl_for_loop0 $end
$var integer 32 b# i [31:0] $end
$upscope $end
$upscope $end
$scope task createNOP $end
$upscope $end
$upscope $end
$scope module pc $end
$var wire 32 c# Pc_update [31:0] $end
$var wire 1 * StallPc $end
$var wire 32 d# alu_result [31:0] $end
$var wire 1 $ clk $end
$var wire 1 > pcsel $end
$var wire 1 % rst $end
$var wire 1 9 takebranch $end
$var wire 32 e# iout [31:0] $end
$var reg 32 f# IF_Instr [31:0] $end
$var reg 32 g# IF_Pc [31:0] $end
$var reg 32 h# IF_Pc4 [31:0] $end
$var reg 32 i# next_pc [31:0] $end
$var reg 32 j# pc [31:0] $end
$var reg 32 k# pc_plus_4 [31:0] $end
$scope module imem $end
$var wire 32 l# addr [31:0] $end
$var wire 32 m# data [31:0] $end
$upscope $end
$upscope $end
$scope module wb $end
$var wire 32 n# MEM_Alu_Result [31:0] $end
$var wire 32 o# MEM_Imm [31:0] $end
$var wire 32 p# MEM_Pc4 [31:0] $end
$var wire 5 q# MEM_RegD [4:0] $end
$var wire 32 r# MEM_Rmemdata [31:0] $end
$var wire 2 s# MEM_WBsel [1:0] $end
$var wire 1 , MEM_WReg $end
$var wire 1 $ clk $end
$var wire 1 % rst $end
$var reg 5 t# WB_RegRd [4:0] $end
$var reg 32 u# WB_RegWData [31:0] $end
$var reg 1 & WB_RegWrite $end
$upscope $end
$upscope $end
$upscope $end
$enddefinitions $end
$comment Show the parameter values. $end
$dumpall
b0 M#
b11 L#
b1 K#
b10 J#
b110011 I#
b101 H#
b100 G#
b11 F#
b10 E#
b0 D#
b1 C#
b111 B#
b110 A#
b1 @#
b100 ?#
b10 >#
b101 =#
b11 <#
b0 ;#
b100 :#
b1 9#
b110 8#
b111 7#
b1010 6#
b101 5#
b11 4#
b1000 3#
b1001 2#
b10 1#
b0 0#
b0 %#
b11 $#
b1 ##
b10 "#
b110011 !#
b101 ~"
b100 }"
b11 |"
b10 {"
b0 z"
b1 y"
b111 x"
b110 w"
b1 v"
b100 u"
b10 t"
b101 s"
b11 r"
b0 q"
b100 p"
b1 o"
b110 n"
b111 m"
b1010 l"
b101 k"
b11 j"
b1000 i"
b1001 h"
b10 g"
b0 f"
b0 3"
b11 2"
b1 1"
b10 0"
b110011 /"
b101 ."
b100 -"
b11 ,"
b10 +"
b0 *"
b1 )"
b111 ("
b110 '"
b1 &"
b100 %"
b10 $"
b101 #"
b11 ""
b0 !"
b100 ~
b1 }
b110 |
b111 {
b1010 z
b101 y
b11 x
b1000 w
b1001 v
b10 u
b0 t
b101 #
b1111000 "
b10100 !
$end
#0
$dumpvars
b0 u#
b0 t#
b0 s#
b0 r#
b0 q#
b0 p#
b0 o#
b0 n#
b0 m#
b0 l#
b100 k#
b0 j#
b100 i#
b0 h#
b0 g#
b0 f#
b0 e#
b0 d#
b0 c#
b100000 b#
b0 a#
b0 `#
b0 _#
b0 ^#
b0 ]#
b0 \#
b0 [#
b0 Z#
b0 Y#
b0 X#
b0 W#
b0 V#
b0 U#
b0 T#
b0 S#
b0 R#
b0 Q#
b0 P#
b0 O#
b0 N#
b0 /#
b0 .#
b0 -#
b0 ,#
b0 +#
b0 *#
b0 )#
b0 (#
b0 '#
b0 &#
b0 e"
b0 d"
bx c"
b0 b"
b0 a"
b0 `"
b0 _"
b0 ^"
b0 ]"
b0 \"
b0 ["
b0 Z"
b0 Y"
1X"
0W"
0V"
b0 U"
b0 T"
b0 S"
b0 R"
b0 Q"
b0 P"
0O"
b0 N"
0M"
b0 L"
0K"
b0 J"
0I"
b0 H"
b0 G"
b0 F"
b0 E"
b0 D"
b0 C"
b0 B"
0A"
b0 @"
0?"
0>"
0="
0<"
b0 ;"
b0 :"
b0 9"
b0 8"
b0 7"
b0 6"
b0 5"
b0 4"
b0 s
b0 r
b0 q
b0 p
b0 o
b0 n
b0 m
b0 l
b0 k
b0 j
b0 i
b0 h
b0 g
b0 f
b0 e
b0 d
b0 c
b0 b
b10000000000 a
bx `
b0 _
b0 ^
b0 ]
b0 \
b0 [
b0 Z
b0 Y
b0 X
b0 W
b0 V
b0 U
b0 T
b0 S
b0 R
bx Q
b0 P
b0 O
b0 N
b0 M
b0 L
b0 K
0J
b0 I
0H
b0 G
0F
b0 E
b0 D
b0 C
0B
0A
b0 @
b0 ?
0>
b0 =
b0 <
b0 ;
0:
09
b0 8
b0 7
b0 6
b0 5
b0 4
b0 3
b0 2
b0 1
b0 0
0/
b0 .
b0 -
0,
0+
0*
bx )
b0 (
b0 '
0&
1%
0$
$end
#10
1$
#20
0$
#30
1$
#40
0$
#50
1$
#60
0$
#70
1$
#80
0$
#90
1$
#100
0$
#110
1$
#120
1K"
0$
0%
#130
b1000001000000110110011 e#
b1000001000000110110011 m#
b1000 i#
b1000 k#
bx .
bx \
bx r#
19
b0 )
b0 c"
b100 4
b100 T"
b100 h#
b100 j#
b100 l#
1$
#140
0$
#150
b11 E"
b11111111111111111111111111110001 G"
1W"
0X"
1>"
0K"
b11111111111111111111111111110001 Y#
b11111111111111111111111111110001 H"
b11111111111111111111111111110001 (#
b11111111111111111111111111110001 a#
b11 F"
b11 '#
b11 `#
b110011 -#
b11 B"
b11 *#
b1 D"
b1 ,#
b1 Z#
b1 \#
b10 C"
b10 +#
b10 [#
b10 ]#
b100 P
b100 9"
b1000001000000110110011 O
b1000001000000110110011 8"
b1000001000000110110011 d"
b1000001000000110110011 )#
b1000000001000001000000110110011 e#
b1000000001000001000000110110011 m#
b1100 i#
b1100 k#
b1000 j#
b1000 l#
b1000 4
b1000 T"
b1000 h#
b100 5
b100 g#
b1000001000000110110011 6
b1000001000000110110011 f#
b100 @
b100 h
b100 \"
1$
#160
0$
#170
b1 P"
b1 N#
1>"
b100000 .#
b1000 P
b1000 9"
b1000000001000001000000110110011 O
b1000000001000001000000110110011 8"
b1000000001000001000000110110011 d"
b1000000001000001000000110110011 )#
b11111111111111111111111111110100 b
b11111111111111111111111111110100 4"
b1000001111000110110011 e#
b1000001111000110110011 m#
b10000 i#
b10000 k#
b100 L
b100 U
b100 m
09
b11 ;
b11 e
b11 U"
b11 _"
b11 V#
b11 7
b11 c
b11 a"
b11111111111111111111111111110100 D
b11111111111111111111111111110100 Z"
b11111111111111111111111111110100 d#
b11 <
b11 f
b11 r
b11 ^"
b11111111111111111111111111110100 7"
b11111111111111111111111111110100 U#
b11111111111111111111111111110001 =
b11111111111111111111111111110001 g
b11111111111111111111111111110001 s
b11111111111111111111111111110001 ]"
b1000 @
b1000 h
b1000 \"
1:
b1100 4
b1100 T"
b1100 h#
b1000 5
b1000 g#
b1000000001000001000000110110011 6
b1000000001000001000000110110011 f#
b1100 j#
b1100 l#
1$
#180
0$
#190
1>"
b10 P"
b10 N#
b111 /#
b0 .#
b1100 P
b1100 9"
b1000001111000110110011 O
b1000001111000110110011 8"
b1000001111000110110011 d"
b1000001111000110110011 )#
b1000001110000110110011 e#
b1000001110000110110011 m#
b10100 i#
b10100 k#
b11111111111111111111111111101110 b
b11111111111111111111111111101110 4"
b10000 j#
b10000 l#
b10000 4
b10000 T"
b10000 h#
b1100 5
b1100 g#
b1000001111000110110011 6
b1000001111000110110011 f#
b1 E
b1 j
b1 q
b1 Y"
b1100 @
b1100 h
b1100 \"
1H
b11 G
b11 R
b11 ^
b11 p
b11 K
b11 T
b11 n
b11 6"
b11 T#
b1000 L
b1000 U
b1000 m
b11111111111111111111111111110100 N
b11111111111111111111111111110100 W
b11111111111111111111111111110100 _
b11111111111111111111111111110100 k
b11111111111111111111111111110100 5"
b11111111111111111111111111110100 S#
b100 1
b100 Z
b100 p#
1$
#200
0$
#210
1>"
b11 P"
b11 N#
b110 /#
b10000 P
b10000 9"
b1000001110000110110011 O
b1000001110000110110011 8"
b1000001110000110110011 d"
b1000001110000110110011 )#
b1 b
b1 4"
b1000001100000110110011 e#
b1000001100000110110011 m#
b11000 i#
b11000 k#
b11111111111111111111111111110100 3
b11111111111111111111111111110100 X
b11111111111111111111111111110100 :"
b11111111111111111111111111110100 W#
b11111111111111111111111111110100 n#
1,
b11 0
b11 [
b11 ;"
b11 X#
b11 q#
b1000 1
b1000 Z
b1000 p#
b1100 L
b1100 U
b1100 m
b11111111111111111111111111101110 N
b11111111111111111111111111101110 W
b11111111111111111111111111101110 _
b11111111111111111111111111101110 k
b11111111111111111111111111101110 5"
b11111111111111111111111111101110 S#
b10 E
b10 j
b10 q
b10 Y"
b10000 @
b10000 h
b10000 \"
b10100 4
b10100 T"
b10100 h#
b10000 5
b10000 g#
b1000001110000110110011 6
b1000001110000110110011 f#
b10100 j#
b10100 l#
1$
#220
0$
#230
1>"
b100 P"
b100 N#
b100 /#
b10100 P
b10100 9"
b1000001100000110110011 O
b1000001100000110110011 8"
b1000001100000110110011 d"
b1000001100000110110011 )#
b1000001001000110110011 e#
b1000001001000110110011 m#
b11100 i#
b11100 k#
b11111111111111111111111111110011 b
b11111111111111111111111111110011 4"
b11000 j#
b11000 l#
b11000 4
b11000 T"
b11000 h#
b10100 5
b10100 g#
b1000001100000110110011 6
b1000001100000110110011 f#
b11 E
b11 j
b11 q
b11 Y"
b10100 @
b10100 h
b10100 \"
b10000 L
b10000 U
b10000 m
b1 N
b1 W
b1 _
b1 k
b1 5"
b1 S#
b11111111111111111111111111101110 3
b11111111111111111111111111101110 X
b11111111111111111111111111101110 :"
b11111111111111111111111111101110 W#
b11111111111111111111111111101110 n#
b1100 1
b1100 Z
b1100 p#
1&
b11 (
b11 R"
b11 _#
b11 t#
b11111111111111111111111111110100 '
b11111111111111111111111111110100 Q"
b11111111111111111111111111110100 ^#
b11111111111111111111111111110100 u#
1$
#240
0$
#250
1>"
b101 P"
b101 N#
b1 /#
b11000 P
b11000 9"
b1000001001000110110011 O
b1000001001000110110011 8"
b1000001001000110110011 d"
b1000001001000110110011 )#
b11111111111111111111111111110010 b
b11111111111111111111111111110010 4"
b1000001101000110110011 e#
b1000001101000110110011 m#
b100000 i#
b100000 k#
b11111111111111111111111111101110 '
b11111111111111111111111111101110 Q"
b11111111111111111111111111101110 ^#
b11111111111111111111111111101110 u#
b1 3
b1 X
b1 :"
b1 W#
b1 n#
b10000 1
b10000 Z
b10000 p#
b10100 L
b10100 U
b10100 m
b11111111111111111111111111110011 N
b11111111111111111111111111110011 W
b11111111111111111111111111110011 _
b11111111111111111111111111110011 k
b11111111111111111111111111110011 5"
b11111111111111111111111111110011 S#
b100 E
b100 j
b100 q
b100 Y"
b11000 @
b11000 h
b11000 \"
b11100 4
b11100 T"
b11100 h#
b11000 5
b11000 g#
b1000001001000110110011 6
b1000001001000110110011 f#
b11100 j#
b11100 l#
1$
#260
0$
#270
1>"
b110 P"
b110 N#
b101 /#
b11100 P
b11100 9"
b1000001101000110110011 O
b1000001101000110110011 8"
b1000001101000110110011 d"
b1000001101000110110011 )#
b1000000001000001101000110110011 e#
b1000000001000001101000110110011 m#
b100100 i#
b100100 k#
b11111111111111111111111110001000 b
b11111111111111111111111110001000 4"
b100000 j#
b100000 l#
b100000 4
b100000 T"
b100000 h#
b11100 5
b11100 g#
b1000001101000110110011 6
b1000001101000110110011 f#
b101 E
b101 j
b101 q
b101 Y"
b11100 @
b11100 h
b11100 \"
b11000 L
b11000 U
b11000 m
b11111111111111111111111111110010 N
b11111111111111111111111111110010 W
b11111111111111111111111111110010 _
b11111111111111111111111111110010 k
b11111111111111111111111111110010 5"
b11111111111111111111111111110010 S#
b11111111111111111111111111110011 3
b11111111111111111111111111110011 X
b11111111111111111111111111110011 :"
b11111111111111111111111111110011 W#
b11111111111111111111111111110011 n#
b10100 1
b10100 Z
b10100 p#
b1 '
b1 Q"
b1 ^#
b1 u#
1$
#280
0$
#290
1K"
1>"
b0 P"
b0 N#
b100000 .#
b100000 P
b100000 9"
b1000000001000001101000110110011 O
b1000000001000001101000110110011 8"
b1000000001000001101000110110011 d"
b1000000001000001101000110110011 )#
b11111111111111111111111111110 b
b11111111111111111111111111110 4"
b10001000001000000110110011 e#
b10001000001000000110110011 m#
b101000 i#
b101000 k#
b11111111111111111111111111110011 '
b11111111111111111111111111110011 Q"
b11111111111111111111111111110011 ^#
b11111111111111111111111111110011 u#
b11111111111111111111111111110010 3
b11111111111111111111111111110010 X
b11111111111111111111111111110010 :"
b11111111111111111111111111110010 W#
b11111111111111111111111111110010 n#
b11000 1
b11000 Z
b11000 p#
b11100 L
b11100 U
b11100 m
b11111111111111111111111110001000 N
b11111111111111111111111110001000 W
b11111111111111111111111110001000 _
b11111111111111111111111110001000 k
b11111111111111111111111110001000 5"
b11111111111111111111111110001000 S#
b110 E
b110 j
b110 q
b110 Y"
b100000 @
b100000 h
b100000 \"
b100100 4
b100100 T"
b100100 h#
b100000 5
b100000 g#
b1000000001000001101000110110011 6
b1000000001000001101000110110011 f#
b100100 j#
b100100 l#
1$
#300
0$
#310
b1000 P"
b1000 N#
1>"
0K"
b0 /#
b1 .#
b100100 P
b100100 9"
b10001000001000000110110011 O
b10001000001000000110110011 8"
b10001000001000000110110011 d"
b10001000001000000110110011 )#
b10001000001100000110110011 e#
b10001000001100000110110011 m#
b101100 i#
b101100 k#
b11111111111111111111111111110100 b
b11111111111111111111111111110100 4"
b101000 j#
b101000 l#
b101000 4
b101000 T"
b101000 h#
b100100 5
b100100 g#
b10001000001000000110110011 6
b10001000001000000110110011 f#
b0 E
b0 j
b0 q
b0 Y"
b100100 @
b100100 h
b100100 \"
b100000 L
b100000 U
b100000 m
b11111111111111111111111111110 N
b11111111111111111111111111110 W
b11111111111111111111111111110 _
b11111111111111111111111111110 k
b11111111111111111111111111110 5"
b11111111111111111111111111110 S#
b11111111111111111111111110001000 3
b11111111111111111111111110001000 X
b11111111111111111111111110001000 :"
b11111111111111111111111110001000 W#
b11111111111111111111111110001000 n#
b11100 1
b11100 Z
b11100 p#
b11111111111111111111111111110010 '
b11111111111111111111111111110010 Q"
b11111111111111111111111111110010 ^#
b11111111111111111111111111110010 u#
1$
#320
0$
#330
1>"
b1001 P"
b1001 N#
b100 /#
b101000 P
b101000 9"
b10001000001100000110110011 O
b10001000001100000110110011 8"
b10001000001100000110110011 d"
b10001000001100000110110011 )#
b11111111111111111111111111010011 b
b11111111111111111111111111010011 4"
bx e#
bx m#
b110000 i#
b110000 k#
b11111111111111111111111110001000 '
b11111111111111111111111110001000 Q"
b11111111111111111111111110001000 ^#
b11111111111111111111111110001000 u#
b11111111111111111111111111110 3
b11111111111111111111111111110 X
b11111111111111111111111111110 :"
b11111111111111111111111111110 W#
b11111111111111111111111111110 n#
b100000 1
b100000 Z
b100000 p#
b100100 L
b100100 U
b100100 m
b11111111111111111111111111110100 N
b11111111111111111111111111110100 W
b11111111111111111111111111110100 _
b11111111111111111111111111110100 k
b11111111111111111111111111110100 5"
b11111111111111111111111111110100 S#
b1000 E
b1000 j
b1000 q
b1000 Y"
b101000 @
b101000 h
b101000 \"
b101100 4
b101100 T"
b101100 h#
b101000 5
b101000 g#
b10001000001100000110110011 6
b10001000001100000110110011 f#
b101100 j#
b101100 l#
1$
#340
0$
#350
bx E"
bx G"
xW"
xX"
bx Y#
bx H"
bx (#
bx a#
bx F"
bx '#
bx `#
1K"
0>"
b0 P"
b0 N#
bx -#
bx B"
bx *#
bx /#
bx D"
bx ,#
bx Z#
bx \#
bx C"
bx +#
bx [#
bx ]#
bx .#
b101100 P
b101100 9"
bx O
bx 8"
bx d"
bx )#
b110100 i#
b110100 k#
b1010101010101010101010101010000 b
b1010101010101010101010101010000 4"
b110000 j#
b110000 l#
b110000 4
b110000 T"
b110000 h#
b101100 5
b101100 g#
bx 6
bx f#
b1001 E
b1001 j
b1001 q
b1001 Y"
b101100 @
b101100 h
b101100 \"
b101000 L
b101000 U
b101000 m
b11111111111111111111111111010011 N
b11111111111111111111111111010011 W
b11111111111111111111111111010011 _
b11111111111111111111111111010011 k
b11111111111111111111111111010011 5"
b11111111111111111111111111010011 S#
b11111111111111111111111111110100 3
b11111111111111111111111111110100 X
b11111111111111111111111111110100 :"
b11111111111111111111111111110100 W#
b11111111111111111111111111110100 n#
b100100 1
b100100 Z
b100100 p#
b11111111111111111111111111110 '
b11111111111111111111111111110 Q"
b11111111111111111111111111110 ^#
b11111111111111111111111111110 u#
1$
#360
0$
